{
    "name": "devcontainer",
    "image": "python:3.11-bullseye",
    "postStartCommand": "pip install -r requirements.txt && pip install -r requirements-dev.txt",
    "customizations": {
        "vscode": {
            "extensions": [
                "ms-python.pylint",
                "ms-python.python",
                "ms-python.vscode-pylance",
                "ms-toolsai.jupyter"
            ]
        }
    }
}
